%YAML 1.1
%TAG !u! tag:unity3d.com,2011:
--- !u!1 &100000
GameObject:
  m_ObjectHideFlags: 0
  m_PrefabParentObject: {fileID: 0}
  m_PrefabInternal: {fileID: 100100000}
  serializedVersion: 4
  m_Component:
  - 4: {fileID: 400000}
  - 114: {fileID: 11400000}
  m_Layer: 0
  m_Name: PlayerSelectMenu
  m_TagString: Untagged
  m_Icon: {fileID: 0}
  m_NavMeshLayer: 0
  m_StaticEditorFlags: 0
  m_IsActive: 1
--- !u!4 &400000
Transform:
  m_ObjectHideFlags: 1
  m_PrefabParentObject: {fileID: 0}
  m_PrefabInternal: {fileID: 100100000}
  m_GameObject: {fileID: 100000}
  m_LocalRotation: {x: 0, y: 0, z: 0, w: 1}
  m_LocalPosition: {x: 0, y: 0, z: 0}
  m_LocalScale: {x: 1, y: 1, z: 1}
  m_Children: []
  m_Father: {fileID: 0}
  m_RootOrder: 0
--- !u!114 &11400000
MonoBehaviour:
  m_ObjectHideFlags: 1
  m_PrefabParentObject: {fileID: 0}
  m_PrefabInternal: {fileID: 100100000}
  m_GameObject: {fileID: 100000}
  m_Enabled: 1
  m_EditorHideFlags: 0
  m_Script: {fileID: 11500000, guid: 856ab2ebf918f614f8b433fe55208382, type: 3}
  m_Name: 
  m_EditorClassIdentifier: 
  selectMenu: {fileID: 2800000, guid: 719e82b227b9a1e489586888f1c4eb5b, type: 3}
  ready: {fileID: 2800000, guid: f675029a8448b8e40931bdaf5c92e4af, type: 3}
  waiting: {fileID: 2800000, guid: dc380d2b27ed1c24cb082a4e237795e4, type: 3}
  backButton: {fileID: 2800000, guid: 3185a150b836c1d4787a8edab0809e11, type: 3}
  left: {fileID: 2800000, guid: 503603ba8686b65438a7b4a1f5e75106, type: 3}
  right: {fileID: 2800000, guid: 75dd4d55f79e9e945864318b4883ab02, type: 3}
  p1Tile: {fileID: 2800000, guid: 841f28e981aecac408cfb35cfad6a217, type: 3}
  p2Tile: {fileID: 2800000, guid: 1fd057dc8efc70e409cdc7318e5c01b4, type: 3}
  p3Tile: {fileID: 2800000, guid: a9e27968d324e0b4dbd0e0bb1ba10149, type: 3}
  p4Tile: {fileID: 2800000, guid: 3f6fec13a73a7db4384eddfbc0fad51c, type: 3}
  p1TileOff: {fileID: 2800000, guid: 4ca8a9894f63fed42949198479fcaed7, type: 3}
  p2TileOff: {fileID: 2800000, guid: b0000a3d508909146b3112aa5de0de2c, type: 3}
  p3TileOff: {fileID: 2800000, guid: 52dba40ae4e96dd4a9a76123d655c8e8, type: 3}
  p4TileOff: {fileID: 2800000, guid: 8efc7dda9b037fe4a955508867f6a948, type: 3}
  p1Ready: 0
  p2Ready: 0
  p3Ready: 0
  p4Ready: 0
  readyToGo: 0
  stock: 3
--- !u!1001 &100100000
Prefab:
  m_ObjectHideFlags: 1
  serializedVersion: 2
  m_Modification:
    m_TransformParent: {fileID: 0}
    m_Modifications: []
    m_RemovedComponents: []
  m_ParentPrefab: {fileID: 0}
  m_RootGameObject: {fileID: 100000}
  m_IsPrefabParent: 1
  m_IsExploded: 1
